Lesson Modules for Teaching Visual Analytics
…
gapminder_mortality5$country<-gsub("North Korea","Korea, Dem. Rep.",gapminder_mortality5$country)
gapminder_mortality5$country<-gsub("South Korea","Korea, Rep.",gapminder_mortality5$country)
gapminder_mortality5$country<-gsub("Yemen","Yemen, Rep.",gapminder_mortality5$country)

gapminder_mortality5<-gapminder_mortality5 %>%
  filter(country %in% countries)

sum(is.na(gapminder_mortality5$mortality))

## [1] 156

gapminder_mortality5[is.na(gapminder_mortality5$mortality),]

## # A tibble: 156 x 3
##    country           year mortality
##    <chr>            <int>     <dbl>
##  1 Hong Kong, China  1950        NA
##  2 Puerto Rico       1950        NA
##  3 Reunion           1950        NA
##  4 Taiwan            1950        NA
##  5 Hong Kong, China  1951        NA
##  6 Puerto Rico       1951        NA
##  7 Reunion           1951        NA
##  8 Taiwan            1951        NA
##  9 Hong Kong, China  1952        NA
## 10 Puerto Rico       1952        NA
## # ... with 146 more rows
…
