Lesson Modules for Teaching Visual Analytics
…
From the gapminder package, we will get the subset of countries where the data is most complete.

countries<-levels(gapminder$country)

Finally, we will wrangle the data into the final form needed.

gapminder_population<-gapminder_population_temp %>%
  gather(year,pop,-"Total population") %>%
  rename(country="Total population") %>%
  mutate(year=as.integer(year),pop=as.integer(pop)) %>%
  filter(country %in% countries,year>=1950)
rm(gapminder_population_temp)
gapminder_population

## # A tibble: 9,174 x 3
##    country      year      pop
##    <chr>       <int>    <int>
##  1 Afghanistan  1950  7752118
##  2 Albania      1950  1263171
##  3 Algeria      1950  8872247
##  4 Angola       1950  4354882
##  5 Argentina    1950 17150335
##  6 Australia    1950  8177344
##  7 Austria      1950  6936445
##  8 Bahrain      1950   115614
##  9 Bangladesh   1950 37894680
## 10 Belgium      1950  8628489
## # ... with 9,164 more rows
…
